{
  "project_info": {
    "project_number": "525717394278",
    "firebase_url": "https://farmindzim.firebaseio.com",
    "project_id": "farmindzim",
    "storage_bucket": "farmindzim.appspot.com"
  },
  "client": [
    {
      "client_info": {
        "mobilesdk_app_id": "1:525717394278:android:2bbebe5a78a8ee7c",
        "android_client_info": {
          "package_name": "com.farmandindustryzim.fiz"
        }
      },
      "oauth_client": [
        {
          "client_id": "525717394278-oe2q9kiilalrpsuik9roe9v4vht4d3ov.apps.googleusercontent.com",
          "client_type": 1,
          "android_info": {
            "package_name": "com.farmandindustryzim.fiz",
            "certificate_hash": "6b666876e1f16afa146950eed95fcf5285221876"
          }
        },
        {
          "client_id": "525717394278-iul68d4u6flnp5bqcpcaf51fp8u4dmoj.apps.googleusercontent.com",
          "client_type": 3
        }
      ],
      "api_key": [
        {
          "current_key": "AIzaSyA2iCUvPi-UXQRwxk69iWnflIJgYdmJFW4"
        }
      ],
      "services": {
        "analytics_service": {
          "status": 1
        },
        "appinvite_service": {
          "status": 2,
          "other_platform_oauth_client": [
            {
              "client_id": "525717394278-iul68d4u6flnp5bqcpcaf51fp8u4dmoj.apps.googleusercontent.com",
              "client_type": 3
            }
          ]
        },
        "ads_service": {
          "status": 2
        }
      }
    }
  ],
  "configuration_version": "1"
}